<?xml version="1.0" encoding="UTF-8" standalone="no"?>
<svg
   xmlns:dc="http://purl.org/dc/elements/1.1/"
   xmlns:cc="http://creativecommons.org/ns#"
   xmlns:rdf="http://www.w3.org/1999/02/22-rdf-syntax-ns#"
   xmlns:svg="http://www.w3.org/2000/svg"
   xmlns="http://www.w3.org/2000/svg"
   xmlns:xlink="http://www.w3.org/1999/xlink"
   xmlns:sodipodi="http://sodipodi.sourceforge.net/DTD/sodipodi-0.dtd"
   xmlns:inkscape="http://www.inkscape.org/namespaces/inkscape"
   enable-background="new"
   inkscape:version="1.0alpha2 (1:0.92.0+devel+201908181756+863a58d)"
   sodipodi:docname="Datashards-logo.svg"
   id="svg8"
   version="1.1"
   viewBox="0 0 132.29166 132.29167"
   height="500"
   width="500">
  <title
     id="title1046">Datashards Logo</title>
  <defs
     id="defs2">
    <clipPath
       id="clipPath881"
       clipPathUnits="userSpaceOnUse">
      <path
         style="fill:#000000;fill-opacity:1;stroke:none;stroke-width:0.264583px;stroke-linecap:butt;stroke-linejoin:miter;stroke-opacity:1"
         d="m 137.58334,77.343375 -0.91667,8.01619 17.96597,2.707203 0.95182,-8.2193 z"
         id="path883"
         inkscape:connector-curvature="0"
         sodipodi:nodetypes="ccccc" />
    </clipPath>
    <clipPath
       id="clipPath885"
       clipPathUnits="userSpaceOnUse">
      <path
         sodipodi:nodetypes="ccccc"
         inkscape:connector-curvature="0"
         id="path887"
         d="m 136.54391,90.761532 0.12276,-5.401966 17.96597,2.707203 -1.41053,5.813065 z"
         style="fill:#000000;fill-opacity:1;stroke:none;stroke-width:0.264583px;stroke-linecap:butt;stroke-linejoin:miter;stroke-opacity:1" />
    </clipPath>
    <clipPath
       clipPathUnits="userSpaceOnUse"
       id="clipPath881-8">
      <path
         sodipodi:nodetypes="ccccc"
         inkscape:connector-curvature="0"
         id="path883-9"
         d="m 137.58334,77.343375 -0.91667,8.01619 17.96597,2.707203 0.95182,-8.2193 z"
         style="fill:#000000;fill-opacity:1;stroke:none;stroke-width:0.264583px;stroke-linecap:butt;stroke-linejoin:miter;stroke-opacity:1" />
    </clipPath>
  </defs>
  <sodipodi:namedview
     inkscape:guide-bbox="true"
     units="px"
     inkscape:snap-bbox="true"
     showguides="true"
     inkscape:snap-global="true"
     showborder="true"
     showgrid="false"
     inkscape:document-rotation="0"
     inkscape:current-layer="g1111"
     inkscape:document-units="px"
     inkscape:cy="453.7911"
     inkscape:cx="219.31931"
     inkscape:zoom="1"
     inkscape:pageshadow="2"
     inkscape:pageopacity="1"
     borderopacity="1.0"
     bordercolor="#666666"
     pagecolor="#ffffff"
     id="base">
    <inkscape:grid
       id="grid1318"
       type="xygrid" />
  </sodipodi:namedview>
  <metadata
     id="metadata5">
    <rdf:RDF>
      <cc:Work
         rdf:about="">
        <dc:format>image/svg+xml</dc:format>
        <dc:type
           rdf:resource="http://purl.org/dc/dcmitype/StillImage" />
        <dc:title>Datashards Logo</dc:title>
        <dc:date>18.8.2019</dc:date>
        <dc:creator>
          <cc:Agent>
            <dc:title>Robert Martinez</dc:title>
          </cc:Agent>
        </dc:creator>
        <cc:license
           rdf:resource="http://creativecommons.org/publicdomain/zero/1.0/" />
        <dc:publisher>
          <cc:Agent>
            <dc:title>https://datashards.net/</dc:title>
          </cc:Agent>
        </dc:publisher>
      </cc:Work>
      <cc:License
         rdf:about="http://creativecommons.org/publicdomain/zero/1.0/">
        <cc:permits
           rdf:resource="http://creativecommons.org/ns#Reproduction" />
        <cc:permits
           rdf:resource="http://creativecommons.org/ns#Distribution" />
        <cc:permits
           rdf:resource="http://creativecommons.org/ns#DerivativeWorks" />
      </cc:License>
    </rdf:RDF>
  </metadata>
  <g
     id="layer1"
     inkscape:groupmode="layer"
     inkscape:label="Layer 1">
    <path
       inkscape:connector-curvature="0"
       d="m 296.30592,-392.54321 v 1.0418 a 1.041801,1.041801 0 0 0 1.04181,-1.0418 z"
       style="opacity:1;vector-effect:none;fill:#ffffff;fill-opacity:1;stroke:none;stroke-width:0.760722;paint-order:markers stroke fill;stop-color:#000000;stop-opacity:1"
       id="use1571-3" />
    <use
       x="0"
       y="0"
       xlink:href="#use1571-3"
       id="use1573-4"
       width="100%"
       height="100%"
       transform="translate(-430.12233,-74.455412)" />
    <use
       x="0"
       y="0"
       xlink:href="#use1573-4"
       id="use1575-1"
       width="100%"
       height="100%"
       transform="rotate(-180,439.82208,76.262019)" />
    <g
       transform="matrix(1.8704724,0,0,1.8704724,-60.715016,-50.892446)"
       id="g1111">
      <g
         id="g1160">
        <g
           id="g1100">
          <g
             id="g1088">
            <path
               id="path1076"
               style="vector-effect:none;fill:#52b167;fill-opacity:1;stroke:none;stroke-width:1.96193;paint-order:markers stroke fill;stop-color:#000000"
               d="M 87.757046,53.713514 H 70.823713 A 16.933327,16.933327 0 0 1 87.757046,36.780179 Z"
               inkscape:connector-curvature="0" />
            <path
               inkscape:connector-curvature="0"
               d="M 70.823713,54.947031 H 87.757046 A 16.933327,16.933327 0 0 1 70.823713,71.880366 Z"
               style="vector-effect:none;fill:#52b167;fill-opacity:1;stroke:none;stroke-width:1.96193;paint-order:markers stroke fill;stop-color:#000000"
               id="path1078" />
          </g>
          <g
             id="g1092">
            <path
               inkscape:connector-curvature="0"
               d="M 50.034669,53.713514 H 66.968002 A 16.933327,16.933327 0 0 0 50.034669,36.780179 Z"
               style="vector-effect:none;fill:#204628;fill-opacity:1;stroke:none;stroke-width:1.96193;paint-order:markers stroke fill;stop-color:#000000"
               id="path1072" />
            <path
               id="path1080"
               style="vector-effect:none;fill:#204628;fill-opacity:1;stroke:none;stroke-width:1.96193;paint-order:markers stroke fill;stop-color:#000000"
               d="M 50.034669,54.947031 H 66.968002 A 16.933327,16.933327 0 0 1 50.034669,71.880366 Z"
               inkscape:connector-curvature="0" />
          </g>
        </g>
        <g
           aria-label="DATASHARDS"
           id="text1084"
           style="font-style:normal;font-variant:normal;font-weight:bold;font-stretch:normal;font-size:9.25832px;line-height:1.25;font-family:sans-serif;-inkscape-font-specification:'sans-serif Bold';letter-spacing:-0.153131px;word-spacing:0px;opacity:1;fill:#204628;fill-opacity:1;stroke:none;stroke-width:0.23146;stop-opacity:1">
          <path
             d="m 43.20762,85.262972 q 0,0.447545 -0.117538,0.863446 -0.113016,0.411381 -0.325487,0.773034 -0.212472,0.357132 -0.506315,0.655496 -0.293843,0.293843 -0.655496,0.506315 -0.361653,0.212471 -0.777554,0.330008 -0.411381,0.113017 -0.858926,0.113017 h -1.952927 v -6.482632 h 1.952927 q 0.447545,0 0.858926,0.117537 0.415901,0.113016 0.777554,0.325488 0.361653,0.212471 0.655496,0.510835 0.293843,0.293843 0.506315,0.655496 0.212471,0.357132 0.325487,0.773033 0.117538,0.411381 0.117538,0.858927 z m -1.297431,0 q 0,-0.402339 -0.153702,-0.754951 -0.149182,-0.352612 -0.415902,-0.614811 -0.262198,-0.266719 -0.619331,-0.420421 -0.352611,-0.153703 -0.75495,-0.153703 h -0.646455 v 3.887771 h 0.646455 q 0.402339,0 0.75495,-0.149182 0.357133,-0.153702 0.619331,-0.415901 0.26672,-0.266719 0.415902,-0.619331 0.153702,-0.357132 0.153702,-0.759471 z"
             style="font-style:normal;font-variant:normal;font-weight:bold;font-stretch:normal;font-family:Righteous;-inkscape-font-specification:'Righteous Bold';letter-spacing:0.264583px;fill:#204628;fill-opacity:1;stroke-width:0.23146"
             id="path1121"
             inkscape:connector-curvature="0" />
          <path
             d="m 48.009637,85.913947 v -1.29743 q 0,-0.266719 -0.103975,-0.501794 -0.09945,-0.239595 -0.275761,-0.415901 -0.176306,-0.176306 -0.415901,-0.275761 -0.235074,-0.103975 -0.501793,-0.103975 -0.26672,0 -0.506315,0.103975 -0.235074,0.09945 -0.41138,0.275761 -0.176306,0.176306 -0.280281,0.415901 -0.09945,0.235075 -0.09945,0.501794 v 1.29743 z m 1.297431,2.590341 h -1.297431 v -1.297431 h -2.594861 v 1.297431 h -1.29291 v -3.887771 q 0,-0.537959 0.20343,-1.008108 0.20343,-0.47467 0.551521,-0.827282 0.352612,-0.352612 0.822761,-0.556042 0.47467,-0.203429 1.012629,-0.203429 0.537959,0 1.008108,0.203429 0.474669,0.20343 0.827281,0.556042 0.352612,0.352612 0.556042,0.827282 0.20343,0.470149 0.20343,1.008108 z"
             style="font-style:normal;font-variant:normal;font-weight:bold;font-stretch:normal;font-family:Righteous;-inkscape-font-specification:'Righteous Bold';letter-spacing:0.264583px;fill:#204628;fill-opacity:1;stroke-width:0.23146"
             id="path1123"
             inkscape:connector-curvature="0" />
          <path
             d="m 53.277283,88.504288 h -1.29291 v -5.185202 h -1.948406 v -1.29743 h 5.185201 v 1.29743 h -1.943885 z"
             style="font-style:normal;font-variant:normal;font-weight:bold;font-stretch:normal;font-family:Righteous;-inkscape-font-specification:'Righteous Bold';letter-spacing:0.264583px;fill:#204628;fill-opacity:1;stroke-width:0.23146"
             id="path1125"
             inkscape:connector-curvature="0" />
          <path
             d="m 59.776153,85.913947 v -1.29743 q 0,-0.266719 -0.103975,-0.501794 -0.09945,-0.239595 -0.27576,-0.415901 -0.176306,-0.176306 -0.415901,-0.275761 -0.235075,-0.103975 -0.501794,-0.103975 -0.266719,0 -0.506315,0.103975 -0.235074,0.09945 -0.41138,0.275761 -0.176306,0.176306 -0.280281,0.415901 -0.09945,0.235075 -0.09945,0.501794 v 1.29743 z m 1.297431,2.590341 h -1.297431 v -1.297431 h -2.594861 v 1.297431 h -1.29291 v -3.887771 q 0,-0.537959 0.20343,-1.008108 0.20343,-0.47467 0.551521,-0.827282 0.352612,-0.352612 0.822761,-0.556042 0.47467,-0.203429 1.012629,-0.203429 0.537959,0 1.008108,0.203429 0.47467,0.20343 0.827281,0.556042 0.352612,0.352612 0.556042,0.827282 0.20343,0.470149 0.20343,1.008108 z"
             style="font-style:normal;font-variant:normal;font-weight:bold;font-stretch:normal;font-family:Righteous;-inkscape-font-specification:'Righteous Bold';letter-spacing:0.264583px;fill:#204628;fill-opacity:1;stroke-width:0.23146"
             id="path1127"
             inkscape:connector-curvature="0" />
          <path
             d="m 62.084077,83.965541 q 0,-0.402339 0.153702,-0.754951 0.153703,-0.352612 0.415901,-0.61481 0.266719,-0.266719 0.619331,-0.420422 0.352612,-0.153702 0.754951,-0.153702 h 2.974597 v 1.29743 h -2.974597 q -0.13562,0 -0.253157,0.04973 -0.117537,0.04973 -0.207951,0.140141 -0.08589,0.08589 -0.13562,0.20343 -0.04973,0.117537 -0.04973,0.253157 0,0.13562 0.04973,0.257678 0.04973,0.117537 0.13562,0.20795 0.09041,0.08589 0.207951,0.13562 0.117537,0.04973 0.253157,0.04973 h 1.297431 q 0.402339,0 0.754951,0.153702 0.357132,0.149182 0.619331,0.415901 0.266719,0.262199 0.415901,0.619331 0.153702,0.352612 0.153702,0.754951 0,0.402339 -0.153702,0.754951 -0.149182,0.352612 -0.415901,0.619331 -0.262199,0.262199 -0.619331,0.415901 -0.352612,0.153703 -0.754951,0.153703 H 62.44573 v -1.297431 h 2.879663 q 0.13562,0 0.253157,-0.04973 0.117537,-0.04973 0.20343,-0.13562 0.09041,-0.09041 0.14014,-0.207951 0.04973,-0.117537 0.04973,-0.253157 0,-0.13562 -0.04973,-0.253157 -0.04973,-0.117537 -0.14014,-0.20343 -0.08589,-0.09041 -0.20343,-0.14014 -0.117537,-0.04973 -0.253157,-0.04973 h -1.297431 q -0.402339,0 -0.754951,-0.153702 -0.352612,-0.153703 -0.619331,-0.415901 -0.262198,-0.26672 -0.415901,-0.619331 -0.153702,-0.357133 -0.153702,-0.759472 z"
             style="font-style:normal;font-variant:normal;font-weight:bold;font-stretch:normal;font-family:Righteous;-inkscape-font-specification:'Righteous Bold';letter-spacing:0.264583px;fill:#204628;fill-opacity:1;stroke-width:0.23146"
             id="path1129"
             inkscape:connector-curvature="0" />
          <path
             d="m 69.685697,88.504288 h -1.297431 v -6.482632 h 1.297431 v 2.594861 h 2.59034 v -2.594861 h 1.297431 v 6.482632 h -1.297431 v -2.590341 h -2.59034 z"
             style="font-style:normal;font-variant:normal;font-weight:bold;font-stretch:normal;font-family:Righteous;-inkscape-font-specification:'Righteous Bold';letter-spacing:0.264583px;fill:#204628;fill-opacity:1;stroke-width:0.23146"
             id="path1131"
             inkscape:connector-curvature="0" />
          <path
             d="m 78.851469,85.913947 v -1.29743 q 0,-0.266719 -0.103975,-0.501794 -0.09946,-0.239595 -0.275761,-0.415901 -0.176306,-0.176306 -0.415901,-0.275761 -0.235075,-0.103975 -0.501794,-0.103975 -0.266719,0 -0.506314,0.103975 -0.235075,0.09945 -0.411381,0.275761 -0.176305,0.176306 -0.280281,0.415901 -0.09945,0.235075 -0.09945,0.501794 v 1.29743 z m 1.29743,2.590341 h -1.29743 v -1.297431 h -2.594861 v 1.297431 h -1.29291 v -3.887771 q 0,-0.537959 0.20343,-1.008108 0.20343,-0.47467 0.551521,-0.827282 0.352611,-0.352612 0.822761,-0.556042 0.474669,-0.203429 1.012628,-0.203429 0.537959,0 1.008108,0.203429 0.47467,0.20343 0.827282,0.556042 0.352612,0.352612 0.556042,0.827282 0.203429,0.470149 0.203429,1.008108 z"
             style="font-style:normal;font-variant:normal;font-weight:bold;font-stretch:normal;font-family:Righteous;-inkscape-font-specification:'Righteous Bold';letter-spacing:0.264583px;fill:#204628;fill-opacity:1;stroke-width:0.23146"
             id="path1133"
             inkscape:connector-curvature="0" />
          <path
             d="m 82.836557,83.319086 v 2.594861 h 1.29743 q 0.266719,0 0.501794,-0.09945 0.235074,-0.103976 0.41138,-0.280282 0.176306,-0.176305 0.275761,-0.41138 0.103975,-0.239595 0.103975,-0.506314 0,-0.266719 -0.103975,-0.501794 -0.09946,-0.239595 -0.275761,-0.415901 -0.176306,-0.176306 -0.41138,-0.275761 -0.235075,-0.103975 -0.501794,-0.103975 z m 0,5.185202 h -1.297431 v -6.482632 h 2.594861 q 0.357133,0 0.687141,0.09493 0.330008,0.09041 0.61481,0.262199 0.289323,0.167265 0.524397,0.40686 0.239596,0.235074 0.40686,0.524397 0.171785,0.289322 0.262199,0.619331 0.09493,0.330008 0.09493,0.687141 0,0.334529 -0.08589,0.650975 -0.08137,0.316447 -0.239595,0.601249 -0.153703,0.284801 -0.379736,0.524397 -0.226033,0.239595 -0.506314,0.415901 l 0.718785,1.695249 h -1.378802 l -0.565083,-1.306472 -1.451133,0.009 z"
             style="font-style:normal;font-variant:normal;font-weight:bold;font-stretch:normal;font-family:Righteous;-inkscape-font-specification:'Righteous Bold';letter-spacing:0.264583px;fill:#204628;fill-opacity:1;stroke-width:0.23146"
             id="path1135"
             inkscape:connector-curvature="0" />
          <path
             d="m 92.966832,85.262972 q 0,0.447545 -0.117537,0.863446 -0.113017,0.411381 -0.325488,0.773034 -0.212471,0.357132 -0.506314,0.655496 -0.293843,0.293843 -0.655497,0.506315 -0.361653,0.212471 -0.777554,0.330008 -0.41138,0.113017 -0.858926,0.113017 h -1.952927 v -6.482632 h 1.952927 q 0.447546,0 0.858926,0.117537 0.415901,0.113016 0.777554,0.325488 0.361654,0.212471 0.655497,0.510835 0.293843,0.293843 0.506314,0.655496 0.212471,0.357132 0.325488,0.773033 0.117537,0.411381 0.117537,0.858927 z m -1.29743,0 q 0,-0.402339 -0.153703,-0.754951 -0.149182,-0.352612 -0.415901,-0.614811 -0.262199,-0.266719 -0.619331,-0.420421 -0.352612,-0.153703 -0.754951,-0.153703 h -0.646455 v 3.887771 h 0.646455 q 0.402339,0 0.754951,-0.149182 0.357132,-0.153702 0.619331,-0.415901 0.266719,-0.266719 0.415901,-0.619331 0.153703,-0.357132 0.153703,-0.759471 z"
             style="font-style:normal;font-variant:normal;font-weight:bold;font-stretch:normal;font-family:Righteous;-inkscape-font-specification:'Righteous Bold';letter-spacing:0.264583px;fill:#204628;fill-opacity:1;stroke-width:0.23146"
             id="path1137"
             inkscape:connector-curvature="0" />
          <path
             d="m 93.644402,83.965541 q 0,-0.402339 0.153703,-0.754951 0.153702,-0.352612 0.415901,-0.61481 0.266719,-0.266719 0.619331,-0.420422 0.352612,-0.153702 0.754951,-0.153702 h 2.974597 v 1.29743 h -2.974597 q -0.13562,0 -0.253157,0.04973 -0.117538,0.04973 -0.207951,0.140141 -0.08589,0.08589 -0.13562,0.20343 -0.04973,0.117537 -0.04973,0.253157 0,0.13562 0.04973,0.257678 0.04973,0.117537 0.13562,0.20795 0.09041,0.08589 0.207951,0.13562 0.117537,0.04973 0.253157,0.04973 h 1.29743 q 0.402339,0 0.754951,0.153702 0.357133,0.149182 0.619331,0.415901 0.266719,0.262199 0.415901,0.619331 0.153703,0.352612 0.153703,0.754951 0,0.402339 -0.153703,0.754951 -0.149182,0.352612 -0.415901,0.619331 -0.262198,0.262199 -0.619331,0.415901 -0.352612,0.153703 -0.754951,0.153703 h -2.879663 v -1.297431 h 2.879663 q 0.13562,0 0.253158,-0.04973 0.117537,-0.04973 0.203429,-0.13562 0.09041,-0.09041 0.140141,-0.207951 0.04973,-0.117537 0.04973,-0.253157 0,-0.13562 -0.04973,-0.253157 -0.04973,-0.117537 -0.140141,-0.20343 -0.08589,-0.09041 -0.203429,-0.14014 -0.117538,-0.04973 -0.253158,-0.04973 h -1.29743 q -0.402339,0 -0.754951,-0.153702 -0.352612,-0.153703 -0.619331,-0.415901 -0.262199,-0.26672 -0.415901,-0.619331 -0.153703,-0.357133 -0.153703,-0.759472 z"
             style="font-style:normal;font-variant:normal;font-weight:bold;font-stretch:normal;font-family:Righteous;-inkscape-font-specification:'Righteous Bold';letter-spacing:0.264583px;fill:#204628;fill-opacity:1;stroke-width:0.23146"
             id="path1139"
             inkscape:connector-curvature="0" />
        </g>
      </g>
    </g>
  </g>
</svg>
